\relax 
\@writefile{toc}{\contentsline {section}{\numberline {1}Structural modeling}{1}}
\@writefile{lof}{\contentsline {figure}{\numberline {1}{\ignorespaces RTL netlist viewer screenshot}}{1}}
\@writefile{toc}{\contentsline {section}{\numberline {2}Seven Segment Display I}{1}}
\@writefile{toc}{\contentsline {section}{\numberline {3}Behavioral Simulation}{1}}
\@writefile{lof}{\contentsline {figure}{\numberline {2}{\ignorespaces Screenshot showing the interval measurement (den)}}{2}}
\@writefile{lof}{\contentsline {figure}{\numberline {3}{\ignorespaces Screenshot showing the interval measurement (hd)}}{2}}
\@writefile{toc}{\contentsline {section}{\numberline {4}Postlayout Simulation}{3}}
\@writefile{lof}{\contentsline {figure}{\numberline {4}{\ignorespaces Screenshot showing the interval measurements}}{4}}
\@writefile{toc}{\contentsline {section}{\numberline {5}SNES Controller}{4}}
\@writefile{lof}{\contentsline {figure}{\numberline {5}{\ignorespaces Screenshot showing the transmission frame}}{5}}
\@writefile{lot}{\contentsline {table}{\numberline {1}{\ignorespaces Resource usage of the SNES controller.}}{6}}
\@writefile{toc}{\contentsline {section}{\numberline {6}Seven Segment Display II}{6}}
\@writefile{lof}{\contentsline {figure}{\numberline {6}{\ignorespaces Graph of the state machine}}{6}}
\@writefile{lof}{\contentsline {figure}{\numberline {7}{\ignorespaces Screenshot showing all animation steps}}{7}}
\@writefile{lof}{\contentsline {figure}{\numberline {8}{\ignorespaces Screenshot showing all animation steps}}{8}}
\@writefile{toc}{\contentsline {section}{\numberline {7}Logic Analyzer Measurement}{8}}
\@writefile{lof}{\contentsline {figure}{\numberline {9}{\ignorespaces Screenshot showing the transmission of a whole UART frame sent from FPGA to PC.}}{9}}
\@writefile{lof}{\contentsline {figure}{\numberline {10}{\ignorespaces Screenshot showing the vsync interval}}{10}}
\@writefile{lof}{\contentsline {figure}{\numberline {11}{\ignorespaces Screenshot showing the low-period of the \textsf  {den} signal.}}{11}}
\@writefile{lof}{\contentsline {figure}{\numberline {12}{\ignorespaces Screenshot showing the advanced trigger settings}}{13}}
